// EVENT 0014
Name "Skill: Acquire Gold"

250(bytes(0x04,0x08,0x6f,0x3a,0x0c,0x52,0x50,0x47,0x3a,0x3a,0x53,0x45,0x08,0x3a,0x0a,0x40,0x6e,0x61,0x6d,0x65,0x49,0x22,0x0a,0x49,0x74,0x65,0x6d,0x31,0x06,0x3a,0x06,0x45,0x54,0x3a,0x0b,0x40,0x70,0x69,0x74,0x63,0x68,0x69,0x69,0x3a,0x0c,0x40,0x76,0x6f,0x6c,0x75,0x6d,0x65,0x69,0x55))
ChangeVariable(10,10,0,1,108)
ChangeVariable(10,10,3,0,50)
125(0,1,10)
ShowMessageFace("",0,0,2,1)
ShowMessage("Obtained \\V[10]G!")
0()
